\relax 
\providecommand*{\memsetcounter}[2]{}
\catcode `"\active 
\pgfsyspdfmark {pgfid1}{4736286}{34421990}
\providecommand \oddpage@label [2]{}
\selectlanguage *{german}
\@writefile{toc}{\selectlanguage *{german}}
\@writefile{lof}{\selectlanguage *{german}}
\@writefile{lot}{\selectlanguage *{german}}
\pgfsyspdfmark {pgfid2}{4736286}{34421990}
\pgfsyspdfmark {pgfid3}{4736286}{34421990}
\pgfsyspdfmark {pgfid4}{4736286}{34421990}
\pgfsyspdfmark {pgfid5}{4736286}{34421990}
\pgfsyspdfmark {pgfid6}{4736286}{34421990}
\pgfsyspdfmark {pgfid7}{4736286}{34421990}
\pgfsyspdfmark {pgfid8}{4736286}{34421990}
\pgfsyspdfmark {pgfid9}{4736286}{34421990}
\pgfsyspdfmark {pgfid10}{4736286}{34421990}
\memsetcounter{lastsheet}{10}
\memsetcounter{lastpage}{10}
